[
  {
    "id": "helmet"
  },
  {
    "id": "falcon"
  },
  {
    "id": "binoculars"
  },
  {
    "id": "bow"
  },
  {
    "id": "potion_of_the_witch",
    "uses": "2"
  },
  {
    "id": "shield",
    "uses": "2"
  },
  {
    "id": "water_jug",
    "uses": "2"
  },
  {
    "id": "letter"
  },
  {
    "id": "runestone_yellow"
  },
  {
    "id": "runestone_blue"
  },
  {
    "id": "runestone_green"
  }
]
